…
Minimized the number of columns, making looking at the table in the viewer easier and downsizing the data set some.

Consolidate service types
-------------------------

``` r
#get number of records for each service_name in original data set
serviceCount <- allGIDRequests %>%
  count(service_name, sort = T)
serviceCount
## # A tibble: 35 x 2
##    service_name        n
##    <chr>           <int>
##  1 other           51629
##  2 pothole         38798
##  3 graffiti        23930
##  4 traffic signal  15998
##  5 street light    14538
##  6 sidewalk         9407
##  7 traffic sign     6844
##  8 curb             6141
##  9 tree hazard      5799
## 10 illegal dumping  4561
## # ... with 25 more rows
```
…
``` r
#get list of "two word descriptions" for other service type

#get current other reports
otherIDX <- allGIDRequests$service_nameMOD == "other" | is.na(allGIDRequests$service_nameMOD)
otherGID <- filter(allGIDRequests, otherIDX)

#get unique list of first two words in description, will help give range
#of descriptions in other
twoWordTable <- otherGID %>%
  count(twoWordDesc, sort = TRUE)
twoWordTable
## # A tibble: 251 x 2
##    twoWordDesc              n
##    <chr>                <int>
##  1 "other  at "         35676
##  2 other                 4101
##  3 "other problem "       951
##  4 "debris in "           816
##  5 "trim tree "           624
##  6 "evaluate tree "       524
##  7 "concrete sidewalk "   487
##  8 <NA>                   482
##  9 "signals stuck "       476
## 10 "evaluate for "        472
## # ... with 241 more rows
```
…
#check out other records that didn't match any key word searches
allSplit <- Reduce(`|`, c(splitOtherGIDDescription$searchIDX, splitOtherGIDType$searchIDX))
```

Can use data viewer to visually examine records grouped by matching regular expressions to **description** and **sap\_problem\_type**. Doing so provides some assurance that regular expressions are performing as expected and records being grouped together all make sense.

``` r
#check out other records remaining that didn't match any key terms.
twoWordRemainTable <- otherGID[!allSplit, ] %>%
  count(twoWordDesc, sort = TRUE)
twoWordRemainTable
## # A tibble: 82 x 2
##    twoWordDesc                   n
##    <chr>                     <int>
##  1 <NA>                      31558
##  2 "other  at "               2195
##  3 "other problem "            947
##  4 "place/pick up "            248
##  5 "temp stop "                189
##  6 "loose steel "               81
##  7 "slide/slope failure "       61
##  8 "traffic calming/safety "    59
##  9 "routine maintenance "       52
## 10 "sign + "                    42
## # ... with 72 more rows

twoWordTypeRemainTable <- otherGID[!allSplit, ] %>%
  mutate(twoWordDesc = str_extract(.$sap_problem_type, twoWord)) %>%
  count(twoWordDesc, sort = TRUE)
twoWordTypeRemainTable
## # A tibble: 93 x 2
##    twoWordDesc             n
##    <chr>               <int>
##  1 <NA>                31558
##  2 other problem        1684
##  3 "place/pick up "      329
##  4 referral              282
##  5 "temp stop "          193
##  6 "sign + "             173
##  7 slide/slope failure   126
##  8 "chain link "         115
##  9 road humps            115
## 10 speeding              113
## # ... with 83 more rows
```
…
``` r
#recategorizing remaining "other" services based on info in sap_problem_category #

#get remaining other records labeled other
otherIDX <- allGIDRequests$service_nameMOD == "other" | is.na(allGIDRequests$service_nameMOD)
otherIDX <- otherIDX & !is.na(allGIDRequests$sap_problem_category) #get records with NA
otherGID <- filter(allGIDRequests, otherIDX)

#category counts for remaining other records
categoriesCount <- otherGID %>%
  count(sap_problem_category, sort = T)
categoriesCount
## # A tibble: 27 x 2
##    sap_problem_category                          n
##    <chr>                                     <int>
##  1 signals - traffic signals                  1293
##  2 csr - referral                              462
##  3 lights - street lights                      456
##  4 standby - night/weekend priority requests   454
##  5 traffic - traffic control                   280
##  6 calming - teo - traffic calming             234
##  7 teo-sgns - teo - signs and markings         233
##  8 parking - teo - parking                     223
##  9 tree/sup - tree/support/code compliance     178
## 10 drains - drain maintenance                  143
## # ... with 17 more rows
…
